{
    "configuration": "cache=on,speed=120,opt=small,maxqspi=50,usbstack=arduino,debug=on",
    "board": "adafruit:samd:adafruit_itsybitsy_m4",
    "port": "COM12",
    "programmer": "adafruit:adafruit_atmel_ice",
    "sketch": "billboard.ino"
}