{
   "inputFilename": "sf_pixelate_regular_61.PNG",
   "outputFilename": "../Src/Images/sf_pixelate_regular_61",
   "blackThresholdMin": 255,
   "greyThresholdMin": 120,
   "namespace": "LargeFont",
   "divoXML": "sf_pixelate_regular_61.xml"

}