{
   "inputFilename": "sf_pixelate_regular_21.PNG",
   "outputFilename": "../Src/Images/sf_pixelate_regular_21",
   "blackThresholdMin": 160,
   "greyThresholdMin": 20,
   "namespace": "SmallFont",
   "divoXML": "sf_pixelate_regular_21.xml"
}